{
  "images" : [
    {
      "idiom" : "universal",
      "scale" : "1x",
      "filename" : "IMG_4988-2.PNG"
    },
    {
      "idiom" : "universal",
      "scale" : "2x",
      "filename" : "IMG_4988-1.PNG"
    },
    {
      "idiom" : "universal",
      "scale" : "3x",
      "filename" : "IMG_4988.PNG"
    }
  ],
  "info" : {
    "version" : 1,
    "author" : "xcode"
  }
}